…
    ##    Min. 1st Qu.  Median    Mean 3rd Qu.    Max. 
    ##   1.000   1.000   1.000   1.534   1.000  72.000

``` r
sectores <- sii_agregar() %>% group_by(rut_empresa) %>% summarise(rubro_sii=first(rubro_sii))
empresas <- merge(empresas,sectores,by="rut_empresa",all.x = TRUE)
empresas %>% group_by(rubro_sii) %>% summarise(fragmentacion=mean(sindicatos),
                                               n=n()) %>% 
  arrange(-fragmentacion)
```

    ## # A tibble: 25 x 3
    ##    rubro_sii                                                                          fragmentacion     n
    ##    <fct>                                                                                      <dbl> <int>
    ##  1 ADMINISTRACION PUBLICA Y DEFENSA; PLANES DE SEGURIDAD SOCIAL DE AFILIACION OBLIG            2.8      5
    ##  2 EXPLOTACION DE MINAS Y CANTERAS                                                             2.12   110
    ##  3 SUMINISTRO DE AGUA; EVACUACION DE AGUAS RESIDUALES, GESTION DE DESECHOS Y DESCON            2.08    36
    ##  4 SUMINISTRO DE AGUA; EVACUACION DE AGUAS RESIDUALES, GESTION DE DESECHOS Y DESCONT~          1.81    27
    ##  5 SUMINISTRO DE ELECTRICIDAD, GAS, VAPOR Y AIRE ACONDICIONADO                                 1.69    62
    ##  6 COMERCIO AL POR MAYOR Y AL POR MENOR; REPARACION DE VEHICULOS AUTOMOTORES Y MOTO            1.68   259
    ##  7 TRANSPORTE Y ALMACENAMIENTO                                                                 1.68   426
    ##  8 ACTIVIDADES DE SERVICIOS ADMINISTRATIVOS Y DE APOYO                                         1.62   413
    ##  9 INDUSTRIA MANUFACTURERA                                                                     1.61   856
    ## 10 ACTIVIDADES DE ALOJAMIENTO Y DE SERVICIO DE COMIDAS                                         1.55   131
    ## # ... with 15 more rows
…
## Consultar por nombre sindicato o empresa

``` r
buscar_sindicatos(empresa_buscada="walmart",sindicato_buscado="lider")[,c(2,3)]
```

    ## # A tibble: 32 x 2
    ##     rsu_raf nombre                                                                     
    ##       <dbl> <chr>                                                                      
    ##  1  5010677 "sindicato de empresa hipermercado valparaiso ltda. \" lider valparaiso \""
    ##  2 15010407 "sindicato nº1 de empresa supermercado lider de arica"                     
    ##  3 14010513 "sindicato de empresa lider valdivia"                                      
    ##  4  8050451 "sindicato nº 2 lider bio bio- sl2bb"                                      
    ##  5 14010540 "sindicato nº 3 empresa lider valdivia"                                    
    ##  6 13090925 "sindicato de empresa lider supermercado maipu ltda"                       
    ##  7 13130990 "sindicato empresa lider velasquez oeste"                                  
    ##  8 13090970 "sindicato unificado lider lonquen ltda."                                  
    ##  9 12010284 "sindicato hiper lider punta arenas"                                       
    ## 10  5011066 "sindicato interempresa de trabajadores de supermercados lider, valparaiso"
    ## # ... with 22 more rows

``` r
buscar_sindicatos(empresa_buscada="codelco",sindicato_buscado="")[,c(2,3)]
```

    ## # A tibble: 52 x 2
    ##    rsu_raf nombre                                                                                        
    ##      <dbl> <chr>                                                                                         
    ##  1 6010813 "sindicato interempresa \"sintrauni\""                                                        
    ##  2 6010918 "sindicato nacional de trabajadores de mantención, minería, montajes, agricolas y afines"     
    ##  3 6010025 "sindicato de trabajadores sewell y mina nº8, de la empresa codelco chile division el tenient~
    ##  4 6010026 "sindicato profesional sewell y mina"                                                         
    ##  5 2020002 "sindicato de trabajadores nº 1 chuquicamata, codelco chile"                                  
    ##  6 2020009 "sindicato de trabajadores nº 2 de la division chuquicamata de codelco chile, centro de traba~
    ##  7 2020036 "sindicato de trabajadores nº 3 de empresa codelco-chile, division codelco norte, centro de t~
    ##  8 2020041 "sindicato de trabajadores supervisores rol-a de la empresa codelco chile division codelco no~
    ##  9 2020053 "sindicato de trabajadores de empresa nº 5, de codelco chile"                                 
    ## 10 2020125 "sindicato de trabajadores radomiro tomic de la division codelco norte, codelco chile"        
    ## # ... with 42 more rows
…
