datos de sindicatos activos y en receso en Chile entre 1920 y 2021 • sindicatoscl
…
## # A tibble: 6 x 4
##   region  rsu_raf nombre                                                 estado 
##    <dbl>    <dbl> <chr>                                                  <chr>  
## 1     13 13110102 SINDICATO N° 3 INTEREMPRESA DE TRABAJADORES DE LAS IN~ ACTIVO 
## 2      6  6020004 SINDICATO INTEREMPRESA DE TRABAJADORES DE LAS INDUSTR~ ACTIVO 
## 3     13 13110159 SINDICATO DE EMPRESA PEDRO PABLO CASTILLO C.,          RECESO 
## 4     10 10030025 SINDICATO DE TRABAJADORES ALAMOS DE LA EMPRESA ENRIQU~ DISUEL~
## 5     14 14010036 SINDICATO DE TRABAJADORES DE EMPRESA ANDRES FRIED KOO~ RECESO 
## 6      7  7060008 SINDICATO INTEREMPRESA DE TRABAJADORES DE las industr~ ACTIVO

Consultar por nombre sindicato o empresa

buscar_sindicatos(empresa_buscada="walmart",sindicato_buscado="lider")[,c(2,3)]

## # A tibble: 32 x 2
##     rsu_raf nombre                                                              
##       <dbl> <chr>                                                               
##  1  5010677 "sindicato de empresa hipermercado valparaiso ltda. \" lider valpar~
##  2 15010407 "sindicato nº1 de empresa supermercado lider de arica"              
##  3 14010513 "sindicato de empresa lider valdivia"                               
##  4  8050451 "sindicato nº 2 lider bio bio- sl2bb"                               
##  5 14010540 "sindicato nº 3 empresa lider valdivia"                             
##  6 13090925 "sindicato de empresa lider supermercado maipu ltda"                
##  7 13130990 "sindicato empresa lider velasquez oeste"                           
##  8 13090970 "sindicato unificado lider lonquen ltda."                           
##  9 12010284 "sindicato hiper lider punta arenas"                                
## 10  5011066 "sindicato interempresa de trabajadores de supermercados lider, val~
## # ... with 22 more rows

buscar_sindicatos(empresa_buscada="codelco",sindicato_buscado="")[,c(2,3)]

## # A tibble: 52 x 2
##    rsu_raf nombre                                                               
##      <dbl> <chr>                                                                
##  1 6010813 "sindicato interempresa \"sintrauni\""                               
##  2 6010918 "sindicato nacional de trabajadores de mantención, minería, montajes~
##  3 6010025 "sindicato de trabajadores sewell y mina nº8, de la empresa codelco ~
##  4 6010026 "sindicato profesional sewell y mina"                                
##  5 2020002 "sindicato de trabajadores nº 1 chuquicamata, codelco chile"         
##  6 2020009 "sindicato de trabajadores nº 2 de la division chuquicamata de codel~
##  7 2020036 "sindicato de trabajadores nº 3 de empresa codelco-chile, division c~
##  8 2020041 "sindicato de trabajadores supervisores rol-a de la empresa codelco ~
##  9 2020053 "sindicato de trabajadores de empresa nº 5, de codelco chile"        
## 10 2020125 "sindicato de trabajadores radomiro tomic de la division codelco nor~
## # ... with 42 more rows
…
