Servicio de Impuestos Internos (SII) • sindicatoscl
…
Indicador de fragmentación sindical por sector económico

empresas <- empresas_sindicatos_activos()
summary(empresas$sindicatos)
#>    Min. 1st Qu.  Median    Mean 3rd Qu.    Max. 
#>   1.000   1.000   1.000   1.535   1.000  73.000

sectores <- sii_agregar() %>% group_by(rut_empresa) %>% summarise(rubro_sii=first(rubro_sii))
empresas <- merge(empresas,sectores,by="rut_empresa",all.x = TRUE)
empresas %>% group_by(rubro_sii) %>% summarise(fragmentacion=mean(sindicatos),
                                               n=n()) %>% 
  arrange(-fragmentacion)
#> # A tibble: 25 x 3
#>    rubro_sii                                                 fragmentacion     n
#>    <fct>                                                             <dbl> <int>
#>  1 ADMINISTRACION PUBLICA Y DEFENSA; PLANES DE SEGURIDAD SO~          2.29     7
#>  2 SUMINISTRO DE AGUA; EVACUACION DE AGUAS RESIDUALES, GEST~          2.05    37
#>  3 EXPLOTACION DE MINAS Y CANTERAS                                    2.05   106
#>  4 SUMINISTRO DE AGUA; EVACUACION DE AGUAS RESIDUALES, GEST~          1.79    28
#>  5 COMERCIO AL POR MAYOR Y AL POR MENOR; REPARACION DE VEHI~          1.70   246
#>  6 TRANSPORTE Y ALMACENAMIENTO                                        1.67   413
#>  7 INDUSTRIA MANUFACTURERA                                            1.62   837
#>  8 ACTIVIDADES DE SERVICIOS ADMINISTRATIVOS Y DE APOYO                1.61   376
#>  9 SUMINISTRO DE ELECTRICIDAD, GAS, VAPOR Y AIRE ACONDICION~          1.60    62
#> 10 COMERCIO AL POR MAYOR Y AL POR MENOR; REPARACION DE VEHI~          1.59   239
#> # ... with 15 more rows
…
