Buscar empresas o sindicatos por palabras claves — buscar_sindicatos • sindicatoscl
…
    empresa_buscada
cadena de texto con palabra clave

sindicato_buscado
cadena de texto con palabra clave

    Value

    Una tibble con los sindicatos filtrados

    Examples

buscar_sindicatos(empresa_buscada="walmart",sindicato_buscado="lider")
#> # A tibble: 32 x 15
#>    region  rsu_raf nombre  estado tipo  direccion socios socias fecha_constituc~
#>     <dbl>    <dbl> <chr>   <chr>  <chr> <chr>      <dbl>  <dbl> <date>          
#>  1      5  5010677 "sindi~ ACTIVO SIND~ VALPARAI~    100    153 2006-05-08      
#>  2     15 15010407 "sindi~ ACTIVO SIND~ pobl. ju~    116    193 2007-09-02      
#>  3     14 14010513 "sindi~ ACTIVO SIND~ BUERAS N~     68     70 2009-07-28      
#>  4      8  8050451 "sindi~ ACTIVO SIND~ AUTOPIST~    147    153 2009-07-24      
#>  5     14 14010540 "sindi~ ACTIVO SIND~ 'BUERAS ~     53     71 2010-10-08      
#>  6     13 13090925 "sindi~ ACTIVO SIND~ RAMON FR~     32     78 2010-10-23      
#>  7     13 13130990 "sindi~ ACTIVO SIND~ AMERICO ~     15     33 2011-06-22      
#>  8     13 13090970 "sindi~ ACTIVO SIND~ AMERICO ~     53     93 2011-08-08      
#>  9     12 12010284 "sindi~ ACTIVO SIND~ PUNTA AR~    104    210 2012-06-23      
#> 10      5  5011066 "sindi~ ACTIVO SIND~ AV. ARGE~     15     16 2018-05-02      
#> # ... with 22 more rows, and 6 more variables: fecha_ultima_directiva <date>,
#> #   nombre_oficina <chr>, empresa <chr>, rut_empresa <chr>, cae <chr>,
#> #   total_socis <dbl>
buscar_sindicatos(empresa_buscada="codelco",sindicato_buscado="")
#> # A tibble: 52 x 15
#>    region rsu_raf nombre   estado tipo  direccion socios socias fecha_constituc~
#>     <dbl>   <dbl> <chr>    <chr>  <chr> <chr>      <dbl>  <dbl> <date>          
#>  1      6 6010813 "sindic~ ACTIVO SIND~ 'RANCAGU~     15      8 2016-12-06      
#>  2      6 6010918 "sindic~ ACTIVO SIND~ OLIVAR S~     18     12 2020-09-09      
#>  3      6 6010025 "sindic~ RECESO SIND~ RUBIO 32~   1124      0 1925-08-01      
#>  4      6 6010026 "sindic~ RECESO SIND~ GERMAN R~    751     24 1937-06-21      
#>  5      2 2020002 "sindic~ ACTIVO SIND~ EDIFICIO~    940     76 1956-09-02      
#>  6      2 2020009 "sindic~ ACTIVO SIND~ GRANADER~    520     43 1956-09-02      
#>  7      2 2020036 "sindic~ ACTIVO SIND~ VILL AEX~    832     98 1988-05-07      
#>  8      2 2020041 "sindic~ ACTIVO SIND~ VILLA EX~    411     65 1989-11-22      
#>  9      2 2020053 "sindic~ ACTIVO SIND~ Av. CENY~    145     27 1990-10-30      
#> 10      2 2020125 "sindic~ ACTIVO SIND~ AVDA, NU~    651     54 1997-12-07      
#> # ... with 42 more rows, and 6 more variables: fecha_ultima_directiva <date>,
#> #   nombre_oficina <chr>, empresa <chr>, rut_empresa <chr>, cae <chr>,
#> #   total_socis <dbl>
…
